…
<img src="../images/opening.jpg" width="80%" style="display: block; margin: auto;" />

The Golden State Warriors scored an average of 121.6 points in this year's grand finals, which is the fourth highest average score in the history of the NBA finals and the highest average score in the past 50 years. Here we are going to analyze the key to the Golden State Warriors' huge success: **the ability to shoot**.

#### The overall statistics

    ## # A tibble: 1 x 3
    ##   team_name             two_points_perc_made three_points_perc_made
    ##   <fct>                                <dbl>                  <dbl>
    ## 1 Golden State Warriors                0.553                  0.395

> The over all effective shooting percentage of the Golden State Warriors

    ## # A tibble: 28 x 7
    ##    opponent two_points two_points_made two_points_perc~ three_points
    ##    <fct>         <int>           <int>            <dbl>        <int>
    ##  1 Atlanta~         56              28             50             63
    ##  2 Boston ~         47              28             59.6           25
    ##  3 Brookly~         69              28             40.6           56
    ##  4 Charlot~         69              38             55.1           67
    ##  5 Chicago~         67              35             52.2           51
    ##  6 Clevela~         65              40             61.5           62
    ##  7 Dallas ~         67              44             65.7           80
    ##  8 Denver ~        104              59             56.7           70
    ##  9 Detroit~         30              17             56.7           27
    ## 10 Houston~        143              81             56.6          128
    ## # ... with 18 more rows, and 2 more variables: three_points_made <int>,
    ## #   three_points_perc_made <dbl>
…
